{
  "appPageId" : "11ed97f8-c23e-4c4e-b2d7-f341af9d2a0c",
  "componentName" : "siteforce:sldsTwoCol84Layout",
  "id" : "79a0bbcb-e7cc-464b-abb7-01d627bbe89b",
  "label" : "Article Detail",
  "regions" : [ {
    "id" : "e181e82d-f017-4b67-8b0d-fe6201fa80d6",
    "regionName" : "header",
    "type" : "region"
  }, {
    "components" : [ {
      "componentAttributes" : {
        "uniqueNameOrId" : "{!urlName}"
      },
      "componentName" : "forceCommunity:breadcrumbs",
      "id" : "f1ce7673-6bb3-4d78-965b-c3c2b40e78a8",
      "renderPriority" : "NEUTRAL",
      "renditionMap" : { },
      "type" : "component"
    }, {
      "componentAttributes" : {
        "enableVoting" : true,
        "recordId" : "{!recordId}",
        "showTitleInArticleHeader" : true,
        "showTopicPills" : false,
        "urlName" : "{!urlName}"
      },
      "componentName" : "selfService:singleArticleView",
      "id" : "196d9247-7df9-4c6c-a17e-34afbdf4318e",
      "renderPriority" : "NEUTRAL",
      "renditionMap" : { },
      "type" : "component"
    } ],
    "id" : "eba90398-53d7-4ce1-adc0-2ab9a4dc375c",
    "regionName" : "content",
    "type" : "region"
  }, {
    "components" : [ {
      "componentAttributes" : {
        "numberOfItems" : 5,
        "showViewCounts" : true,
        "title" : "Related Articles"
      },
      "componentName" : "selfService:similarArticles42",
      "id" : "c5feee81-7084-4572-9616-223290e77f73",
      "renderPriority" : "NEUTRAL",
      "renditionMap" : { },
      "type" : "component"
    } ],
    "id" : "4d5530cd-860d-4e25-8cf4-5324ea95e3c1",
    "regionName" : "sidebar",
    "type" : "region"
  }, {
    "id" : "407c91c8-dcad-49c9-9c9e-aa4492de6007",
    "regionName" : "footer",
    "type" : "region"
  }, {
    "components" : [ {
      "componentAttributes" : {
        "description" : "{!Record.Summary}",
        "metaTags" : "",
        "title" : "{!Record._Title}"
      },
      "componentName" : "forceCommunity:seoAssistant",
      "id" : "ebd2b82d-468e-46bf-a8c3-4b9c6725230a",
      "renderPriority" : "NEUTRAL",
      "renditionMap" : { },
      "type" : "component"
    } ],
    "id" : "47c0f5a5-813e-41a2-97d8-70a2bd95a7f8",
    "regionName" : "sfdcHiddenRegion",
    "type" : "region"
  } ],
  "themeLayoutType" : "Inner",
  "type" : "view",
  "viewType" : "article"
}