{
  "appPageId" : "11ed97f8-c23e-4c4e-b2d7-f341af9d2a0c",
  "componentName" : "siteforce:sldsOneColLayout",
  "id" : "ea39818f-8c55-47db-9dcc-ab35ce048f72",
  "label" : "Case Related List",
  "regions" : [ {
    "id" : "8b96f088-27cc-4d03-9431-bc8d5bf2506d",
    "regionName" : "header",
    "type" : "region"
  }, {
    "components" : [ {
      "componentAttributes" : {
        "customTitle" : "",
        "parentRecordId" : "{!recordId}",
        "relatedListName" : "{!relationshipApiName}",
        "showBreadCrumbs" : true,
        "showCustomTitle" : false,
        "showManualRefreshButton" : true,
        "showRowNumbers" : true
      },
      "componentName" : "forceCommunity:relatedList",
      "id" : "5fb9f4fb-31c8-414b-bda2-b15fbf61e69f",
      "renderPriority" : "NEUTRAL",
      "renditionMap" : { },
      "type" : "component"
    } ],
    "id" : "7b5d4aa1-2829-4cc8-a98b-347c8417363f",
    "regionName" : "content",
    "type" : "region"
  }, {
    "id" : "7fa98e63-c100-4202-a8b1-a89d51793885",
    "regionName" : "footer",
    "type" : "region"
  } ],
  "themeLayoutType" : "Inner",
  "type" : "view",
  "viewType" : "relatedlist-500"
}