{
  "appPageId" : "11ed97f8-c23e-4c4e-b2d7-f341af9d2a0c",
  "componentName" : "siteforce:sldsThreeCol444Layout",
  "id" : "cc5eee7c-272d-4382-9dd0-6117aaaa2589",
  "label" : "Home",
  "regions" : [ {
    "components" : [ {
      "componentAttributes" : {
        "bannerText" : "A place where you can easily find solutions and ask questions",
        "bannerTextWithKnowledge" : "Explore other <a href=\"javascript:void(0)\" class=\"headlineArticles\">articles</a> and <a href=\"javascript:void(0)\" class=\"headlineDiscussions\">discussions</a> on this topic.",
        "bannerTextWithoutKnowledge" : "Explore other <a href=\"javascript:void(0)\" class=\"headlineDiscussions\">discussions</a> on this topic.",
        "pageType" : "",
        "showSubTopics" : false,
        "title" : "Welcome to the Attunity Customer Portal!",
        "uniqueNameOrId" : ""
      },
      "componentName" : "forceCommunity:headline",
      "id" : "6b2c2be1-4ded-436e-84a9-4cfccb858717",
      "renderPriority" : "NEUTRAL",
      "renditionMap" : { },
      "type" : "component"
    } ],
    "id" : "ae7021ee-d9ef-4c29-a6fc-17953b9c1d6e",
    "regionName" : "header",
    "type" : "region"
  }, {
    "id" : "990a3c78-6765-441a-b86b-bff6deabd9c1",
    "regionName" : "featured",
    "type" : "region"
  }, {
    "components" : [ {
      "componentAttributes" : {
        "richTextValue" : "<h2 style=\"text-align: center;\"><span style=\"font-size: 14px;\">Looking for Attunity Documentation? </span></h2><h2 style=\"text-align: center;\"><span style=\"font-size: 14px;\">You can find it </span><a href=\"https://help.qlik.com\" target=\"_blank\" style=\"font-size: 14px; color: rgb(255, 153, 0);\">here</a>!</h2>"
      },
      "componentName" : "forceCommunity:richTextInline",
      "id" : "306023b5-f9e7-4e3d-a2a8-4d87bc1ecdba",
      "renderPriority" : "NEUTRAL",
      "renditionMap" : { },
      "type" : "component"
    } ],
    "id" : "2f73d81f-8d9f-4ea9-ba05-85e6d0215e7b",
    "regionName" : "content",
    "type" : "region"
  }, {
    "components" : [ {
      "componentAttributes" : {
        "buttonAlignment" : "center",
        "buttonBgColor" : "",
        "buttonBgHoverColor" : "",
        "buttonBorderColor" : "",
        "buttonMaxWidth" : 100,
        "buttonRadius" : 0,
        "buttonTextColor" : "",
        "buttonTextHoverColor" : "",
        "label" : "Create a Support Case"
      },
      "componentName" : "forceCommunity:contactSupportButton",
      "id" : "55889390-0afb-49cf-9dd7-b16b811591fc",
      "renderPriority" : "NEUTRAL",
      "renditionMap" : { },
      "type" : "component"
    } ],
    "id" : "999ee9b8-d04f-4834-a386-b7f021ec6f84",
    "regionName" : "sidebar",
    "type" : "region"
  }, {
    "components" : [ {
      "componentAttributes" : {
        "enableInlineEdit" : false,
        "filterName" : "00B3z000009NhSaEAK",
        "layout" : "FULL",
        "pageSize" : 100,
        "scope" : "Case",
        "showActionBar" : false,
        "showChartsPanel" : true,
        "showDisplay" : "grid",
        "showFilterPanel" : true,
        "showImageIcon" : true,
        "showManualRefreshButton" : true,
        "showObjectName" : true,
        "showPinnedList" : true,
        "showSearchBar" : true
      },
      "componentName" : "forceCommunity:objectHome",
      "id" : "a7f0ee55-be96-4d25-a831-bcbeb1dfb17f",
      "renderPriority" : "NEUTRAL",
      "renditionMap" : { },
      "type" : "component"
    } ],
    "id" : "32d4c765-743c-4159-bbe3-f521fc50ed6c",
    "regionName" : "footer",
    "type" : "region"
  }, {
    "components" : [ {
      "componentAttributes" : {
        "description" : "",
        "metaTags" : "",
        "title" : "Home"
      },
      "componentName" : "forceCommunity:seoAssistant",
      "id" : "b2a5d0ab-b797-4e85-9768-d748af9d5302",
      "renderPriority" : "NEUTRAL",
      "renditionMap" : { },
      "type" : "component"
    } ],
    "id" : "c12a39d4-1c79-4cd8-952c-bb4d1885759f",
    "regionName" : "sfdcHiddenRegion",
    "type" : "region"
  }, {
    "components" : [ {
      "componentAttributes" : {
        "richTextValue" : "<h2 style=\"text-align: center;\"><span style=\"background-color: rgb(255, 255, 255); color: rgb(0, 71, 178); font-size: 14px;\">﻿</span><span style=\"background-color: rgb(255, 255, 255); font-size: 14px;\">Looking for Product Downloads? </span></h2><h2 style=\"text-align: center;\"><span style=\"font-size: 14px; background-color: rgb(255, 255, 255);\">You can find them </span><a href=\"https://demo.qlik.com/download/\" target=\"_blank\" style=\"font-size: 14px; background-color: rgb(255, 255, 255); color: rgb(255, 153, 0);\">here</a><span style=\"background-color: rgb(255, 255, 255);\">!</span></h2>"
      },
      "componentName" : "forceCommunity:richTextInline",
      "id" : "1a6c588d-2a29-4a79-9d5b-5528ce9aa645",
      "renderPriority" : "NEUTRAL",
      "renditionMap" : { },
      "type" : "component"
    } ],
    "id" : "3d723947-e5ec-4238-8d11-80feff3daa4e",
    "regionName" : "sidebarAlt",
    "type" : "region"
  } ],
  "themeLayoutType" : "Inner",
  "type" : "view",
  "viewType" : "home"
}