{
  "appPageId" : "f8f151a7-60c0-4ad6-a897-4c4cc8b48790",
  "componentName" : "siteforce:sldsOneColLayout",
  "id" : "d74fc88d-a231-4e98-8c96-00fa18955f61",
  "label" : "Login Error",
  "regions" : [ {
    "id" : "40dc1153-9a68-400a-8abd-3edb1af0223e",
    "regionName" : "header",
    "type" : "region"
  }, {
    "components" : [ {
      "componentAttributes" : {
        "richTextValue" : "<div style=\"text-align: center;\">Invalid Page</div>"
      },
      "componentName" : "forceCommunity:richTextInline",
      "id" : "fb4af6e0-a409-4402-97d2-9834bb29d4f5",
      "renderPriority" : "NEUTRAL",
      "renditionMap" : { },
      "type" : "component"
    } ],
    "id" : "b9aeb9cf-6327-45a9-8b71-8703b415eba1",
    "regionName" : "content",
    "type" : "region"
  }, {
    "id" : "501ab807-ec9d-4ad0-b700-25a8b0543a66",
    "regionName" : "footer",
    "type" : "region"
  }, {
    "components" : [ {
      "componentAttributes" : {
        "description" : "",
        "metaTags" : "",
        "title" : "Login Error"
      },
      "componentName" : "forceCommunity:seoAssistant",
      "id" : "71d87c87-4942-4924-a214-5a999faae160",
      "renderPriority" : "NEUTRAL",
      "renditionMap" : { },
      "type" : "component"
    } ],
    "id" : "3e167e68-63ae-47b3-959c-6e430048d65b",
    "regionName" : "sfdcHiddenRegion",
    "type" : "region"
  } ],
  "themeLayoutType" : "Login",
  "type" : "view",
  "viewType" : "login-error"
}