{
  "appPageId" : "11ed97f8-c23e-4c4e-b2d7-f341af9d2a0c",
  "componentName" : "siteforce:sldsTwoCol84SidebarFeaturedLayout",
  "id" : "86fc847e-9d43-4a92-bd0b-d05b98ef6b27",
  "label" : "Topic Detail",
  "regions" : [ {
    "components" : [ {
      "componentAttributes" : {
        "bannerText" : "",
        "bannerTextWithKnowledge" : "Explore other <a href=\"javascript:void(0)\" class=\"headlineArticles\">articles</a> and <a href=\"javascript:void(0)\" class=\"headlineDiscussions\">discussions</a> on this topic.",
        "bannerTextWithoutKnowledge" : "Explore other <a href=\"javascript:void(0)\" class=\"headlineDiscussions\">discussions</a> on this topic.",
        "pageType" : "topic",
        "showSubTopics" : true,
        "title" : "Welcome!",
        "uniqueNameOrId" : ""
      },
      "componentName" : "forceCommunity:headline",
      "id" : "1738a8f3-167a-46a5-8235-ba802d9254ee",
      "renderPriority" : "NEUTRAL",
      "renditionMap" : { },
      "type" : "component"
    } ],
    "id" : "0a675bd6-c82c-4170-b89d-fe68986f69c8",
    "regionName" : "header",
    "type" : "region"
  }, {
    "components" : [ {
      "componentAttributes" : {
        "title" : "Description"
      },
      "componentName" : "forceCommunity:topicDescription",
      "id" : "c453bc17-79d5-48ac-a9da-57e66063d0e1",
      "renderPriority" : "NEUTRAL",
      "renditionMap" : { },
      "type" : "component"
    }, {
      "componentAttributes" : {
        "showArticles" : true,
        "showFollowers" : true,
        "showPosts" : true,
        "showTalkingAbout" : true
      },
      "componentName" : "forceCommunity:topicMetrics",
      "id" : "5f0b04b3-f8c5-4329-b92e-708804f7a124",
      "renderPriority" : "NEUTRAL",
      "renditionMap" : { },
      "type" : "component"
    }, {
      "componentAttributes" : {
        "buttonAlignment" : "center",
        "buttonBgColor" : "",
        "buttonBgHoverColor" : "",
        "buttonBorderColor" : "",
        "buttonMaxWidth" : 100,
        "buttonRadius" : 0,
        "buttonTextColor" : "",
        "buttonTextHoverColor" : "",
        "confirmationMessage" : "Got it!",
        "followUpPromptLabel" : "Can we close your question?",
        "isAskFollowPromptEnabled" : true,
        "isIncludeArticlesEnabled" : false,
        "isIncludeDiscussionsEnabled" : true,
        "isInitialSatisfactionPromptEnabled" : true,
        "isPublisherDeflectionEnabled" : true,
        "label" : "Ask a Question",
        "maxSuggestions" : 5,
        "satisfactionPromptLabel" : "Did we help to answer your question?",
        "showDetails" : false,
        "showTopics" : true,
        "uneditableTopics" : false
      },
      "componentName" : "forceCommunity:askCommunity",
      "id" : "e9cf9fea-e125-4f74-8b57-5920504c0766",
      "renderPriority" : "NEUTRAL",
      "renditionMap" : { },
      "type" : "component"
    }, {
      "componentAttributes" : {
        "buttonAlignment" : "center",
        "buttonBgColor" : "",
        "buttonBgHoverColor" : "",
        "buttonBorderColor" : "",
        "buttonMaxWidth" : 100,
        "buttonRadius" : 0,
        "buttonTextColor" : "",
        "buttonTextHoverColor" : "",
        "recordId" : "{!recordId}",
        "showNotificationMenu" : true
      },
      "componentName" : "forceCommunity:follow",
      "id" : "3487ce16-78c9-4f84-a0a2-67677b5a6079",
      "renderPriority" : "NEUTRAL",
      "renditionMap" : { },
      "type" : "component"
    } ],
    "id" : "54be0284-f8ed-4374-81ee-3818945e83b9",
    "regionName" : "featured",
    "type" : "region"
  }, {
    "components" : [ {
      "componentAttributes" : {
        "activeTab" : "{!selectedTab}",
        "articleListPageSize" : 10,
        "articleTabLabel" : "Articles",
        "defaultSortOrderCompactFeed" : "Relevance",
        "defaultSortOrderFullFeed" : "Relevance",
        "discussionTabLabel" : "Discussions",
        "searchTerm" : "{!searchString}",
        "showArticleTab" : true,
        "showCompactFeedInDiscussion" : true,
        "topicId" : "{!recordId}"
      },
      "componentName" : "forceCommunity:resultsList",
      "id" : "a77c4c08-2465-4edd-a94b-66e0cd46eaed",
      "renderPriority" : "NEUTRAL",
      "renditionMap" : { },
      "type" : "component"
    } ],
    "id" : "7644c491-c05c-41b7-bbea-a6428ddbfc9a",
    "regionName" : "content",
    "type" : "region"
  }, {
    "components" : [ {
      "componentAttributes" : {
        "numberOfArticles" : 5,
        "title" : "Trending Articles",
        "topicId" : "{!recordId}"
      },
      "componentName" : "selfService:topicTrendingArticles42",
      "id" : "2e08f90d-e204-4f79-9653-bfad117f50ac",
      "renderPriority" : "NEUTRAL",
      "renditionMap" : { },
      "type" : "component"
    }, {
      "componentAttributes" : {
        "showTopicsMetric" : true,
        "title" : "Related Topics"
      },
      "componentName" : "forceCommunity:relatedTopics",
      "id" : "823948d5-ca75-4b1d-b4f5-dd0ceb74fd27",
      "renderPriority" : "NEUTRAL",
      "renditionMap" : { },
      "type" : "component"
    }, {
      "componentAttributes" : {
        "title" : "Knowledgeable People",
        "topicId" : "{!recordId}"
      },
      "componentName" : "forceCommunity:knowledgeablePeople",
      "id" : "39f26d34-6fc9-4d91-90fb-9a54d1fbb185",
      "renderPriority" : "NEUTRAL",
      "renditionMap" : { },
      "type" : "component"
    } ],
    "id" : "27da017e-5d42-4e82-84c3-72656da8bc78",
    "regionName" : "sidebar",
    "type" : "region"
  }, {
    "components" : [ {
      "componentAttributes" : {
        "askCommunityLabel" : "Ask a Question",
        "buttonBgColor" : "",
        "buttonBgHoverColor" : "",
        "buttonBorderColor" : "",
        "buttonRadius" : 0,
        "buttonTextColor" : "",
        "buttonTextHoverColor" : "",
        "buttonTwoBgColor" : "",
        "buttonTwoBgHoverColor" : "",
        "buttonTwoBorderColor" : "",
        "buttonTwoRadius" : 0,
        "buttonTwoTextColor" : "",
        "buttonTwoTextHoverColor" : "",
        "confirmationMessage" : "Got it!",
        "contactSupportLabel" : "Contact Support",
        "followUpPromptLabel" : "Can we close your question?",
        "headerLabel" : "Don't see what you're looking for?",
        "isAskFollowPromptEnabled" : true,
        "isIncludeArticlesEnabled" : false,
        "isIncludeDiscussionsEnabled" : true,
        "isInitialSatisfactionPromptEnabled" : true,
        "isPublisherDeflectionEnabled" : true,
        "maxSuggestions" : 5,
        "satisfactionPromptLabel" : "Did we help to answer your question?",
        "showDetails" : false,
        "showTopics" : true
      },
      "componentName" : "siteforce:napiliFooter",
      "id" : "e00f6239-a2ed-4a8f-a708-040795ad13b3",
      "renderPriority" : "NEUTRAL",
      "renditionMap" : { },
      "type" : "component"
    } ],
    "id" : "a8ed5f92-60b2-4c14-96b1-93ecd7ccf1ad",
    "regionName" : "footer",
    "type" : "region"
  }, {
    "components" : [ {
      "componentAttributes" : {
        "description" : "{!Record.Description}",
        "metaTags" : "",
        "title" : "{!Record._Title}"
      },
      "componentName" : "forceCommunity:seoAssistant",
      "id" : "9e9f5ed8-2dac-45c2-892c-ab652c94add4",
      "renderPriority" : "NEUTRAL",
      "renditionMap" : { },
      "type" : "component"
    } ],
    "id" : "82666a20-8275-4023-8640-12c8d916b9bf",
    "regionName" : "sfdcHiddenRegion",
    "type" : "region"
  } ],
  "themeLayoutType" : "Inner",
  "type" : "view",
  "viewType" : "topic"
}