{
  "appPageId" : "11ed97f8-c23e-4c4e-b2d7-f341af9d2a0c",
  "componentName" : "siteforce:sldsOneColLayout",
  "id" : "ec469dea-e1ea-452b-a125-5782b743459a",
  "label" : "User Settings",
  "regions" : [ {
    "id" : "c5ca58bc-e6a2-454e-97b7-4595b20f532a",
    "regionName" : "header",
    "type" : "region"
  }, {
    "components" : [ {
      "componentAttributes" : {
        "accountSectionTitle" : "Account",
        "accountTabName" : "Account Details",
        "connectedSourcesTabName" : "Connected Sources",
        "emailNotificationsTitle" : "Email Notifications",
        "emailSectionDescText" : "When email notifications are enabled, email me when someone:",
        "hideChatterNotificationSettings" : false,
        "hideConnectedSources" : false,
        "hideEmailNotificationSettings" : false,
        "hideProfileVisibilitySettings" : false,
        "id" : "{!recordId}",
        "locationTitle" : "Location",
        "profileSectionDescText" : "Customize who is able to see what on your profile page",
        "profileSectionToolTipText" : "Restricted: Visible to the employees of the company that created the site.\\nMembers: Visible to logged-in members.\\nPublic: Visible to anyone viewing pages that don't require login.",
        "profileVisibilityTitle" : "Profile Visibility",
        "settingsPageTitle" : "My Settings"
      },
      "componentName" : "forceCommunity:userSettingsCustomizable",
      "id" : "c3f28233-abc3-4468-ad31-8dd86037ffce",
      "renderPriority" : "NEUTRAL",
      "renditionMap" : { },
      "type" : "component"
    } ],
    "id" : "78b03552-9171-4dcb-a784-a4857fe62a49",
    "regionName" : "content",
    "type" : "region"
  }, {
    "id" : "50774e00-0e5c-49ec-b5a0-ff9a21c48c8b",
    "regionName" : "footer",
    "type" : "region"
  } ],
  "themeLayoutType" : "Inner",
  "type" : "view",
  "viewType" : "usersettings"
}