{
  "appPageId" : "11ed97f8-c23e-4c4e-b2d7-f341af9d2a0c",
  "componentName" : "siteforce:sldsOneColLayout",
  "id" : "a7eede6a-8008-49ed-8ccd-dfea848f0f4c",
  "label" : "User Related List",
  "regions" : [ {
    "id" : "5698fd8d-7dd4-4593-b71c-f89c4e0e0206",
    "regionName" : "header",
    "type" : "region"
  }, {
    "components" : [ {
      "componentAttributes" : {
        "customTitle" : "",
        "parentRecordId" : "{!recordId}",
        "relatedListName" : "{!relationshipApiName}",
        "showBreadCrumbs" : true,
        "showCustomTitle" : false,
        "showManualRefreshButton" : true,
        "showRowNumbers" : true
      },
      "componentName" : "forceCommunity:relatedList",
      "id" : "8320a335-de58-482a-9558-a9558432c7cb",
      "renderPriority" : "NEUTRAL",
      "renditionMap" : { },
      "type" : "component"
    } ],
    "id" : "c5ddf689-d0d3-403b-9679-31dbe91dffef",
    "regionName" : "content",
    "type" : "region"
  }, {
    "id" : "05a73d95-dee9-4467-9d3c-afb025a4d582",
    "regionName" : "footer",
    "type" : "region"
  } ],
  "themeLayoutType" : "Inner",
  "type" : "view",
  "viewType" : "relatedlist-005"
}