{
  "activeBrandingSetId" : "99a9619e-664e-4c69-869e-a21429566de2",
  "customCSS" : "li.profile {\n    display: none\n}",
  "developerName" : "service",
  "id" : "a91004ff-668f-490f-8b91-1b2c28a6d9d5",
  "label" : "Customer Service",
  "layouts" : {
    "Inner" : "f09be8ce-81cd-40f8-9c9d-ee24021c2ff2",
    "Login" : "19be634e-6465-443a-9a6c-9ecb60d46715"
  },
  "type" : "theme",
  "views" : [ {
    "componentName" : "salesforceIdentity:loginBody2",
    "id" : "19be634e-6465-443a-9a6c-9ecb60d46715",
    "label" : "Login",
    "regions" : [ {
      "id" : "61021679-f4ca-44ac-8198-a1f770365932",
      "regionName" : "header",
      "type" : "region"
    }, {
      "id" : "4dbf44ad-5997-4a36-8e7e-79c2a983fc61",
      "regionName" : "content",
      "type" : "region"
    }, {
      "id" : "8113d4a4-0bba-45bd-9666-db0219e9db2e",
      "regionName" : "footer",
      "type" : "region"
    } ],
    "type" : "view"
  }, {
    "componentName" : "siteforce:serviceBody",
    "id" : "f09be8ce-81cd-40f8-9c9d-ee24021c2ff2",
    "label" : "Default",
    "regions" : [ {
      "id" : "9a2ab87d-9422-4481-88ca-2910ac18170f",
      "regionName" : "customHeader",
      "type" : "region"
    }, {
      "components" : [ {
        "componentAttributes" : {
          "contineActionLabel" : "Ask the community",
          "continueLabel" : "Don’t see it?",
          "crossObjectTypeaheadApiNames" : [ {
            "name" : "KnowledgeArticleVersion",
            "isPublic" : true
          } ],
          "disableCrossObjectRelevance" : false,
          "enableAutocomplete" : true,
          "maxNumberOfResults" : 6,
          "placeholder" : "Search Knowledge Articles here...",
          "questionResultsFirst" : false,
          "showContinueAction" : false,
          "showDetails" : false,
          "showTopics" : true,
          "signInActionLabel" : "Sign in to ask the community"
        },
        "componentName" : "forceCommunity:searchBox",
        "id" : "9385cf12-6985-440c-a684-16154dc677e6",
        "renderPriority" : "NEUTRAL",
        "renditionMap" : { },
        "type" : "component"
      } ],
      "id" : "be938d2d-223a-4458-8184-e4f5ec858afb",
      "regionName" : "search",
      "type" : "region"
    }, {
      "components" : [ {
        "componentAttributes" : {
          "accountManagementLabel" : "Account Management",
          "communityBuilderLabel" : "Community Builder",
          "communitySetupLabel" : "Community Setup",
          "contactSupportLabel" : "Contact Support",
          "filterName" : "MyCases",
          "homeLabel" : "Home",
          "includeContactSupport" : false,
          "includeMessages" : false,
          "loginLabel" : "Login",
          "logoutLabel" : "Logout",
          "myAccountLabel" : "My Account",
          "showAccountManagement" : false,
          "showUserSettings" : false,
          "userSettingsLabel" : "My Settings",
          "viewProfileLabel" : "My Profile"
        },
        "componentName" : "selfService:userProfileMenu",
        "id" : "73c6280e-5a1c-4a40-999d-10e43e76bc01",
        "renderPriority" : "NEUTRAL",
        "renditionMap" : { },
        "type" : "component"
      } ],
      "id" : "94aaeb04-ff17-4d6d-8581-4f7880ea0a25",
      "regionName" : "profileMenu",
      "type" : "region"
    }, {
      "components" : [ {
        "componentAttributes" : {
          "NavigationMenuEditorRefresh" : "Default_Navigation2",
          "hideAppLauncher" : true,
          "hideHomeText" : true
        },
        "componentName" : "forceCommunity:globalNavigation",
        "id" : "5836dbf7-410f-4a3b-9a15-07ba7455855e",
        "renderPriority" : "NEUTRAL",
        "renditionMap" : { },
        "type" : "component"
      } ],
      "id" : "693fadb1-c1f0-4565-8991-03df4cb60830",
      "regionName" : "navBar",
      "type" : "region"
    }, {
      "id" : "35c600bb-cd8d-4669-bf7f-646bdfeb1798",
      "regionName" : "customRegion",
      "type" : "region"
    }, {
      "id" : "24e502ba-ca00-42e7-8f9d-6f4db8142878",
      "regionName" : "footer",
      "type" : "region"
    } ],
    "type" : "view"
  } ]
}