{
  "appPageId" : "78601d87-bcd1-4f1d-b79d-60a602599231",
  "componentName" : "siteforce:sldsTwoCol84Layout",
  "id" : "078fb9e3-bf16-4782-b18a-f3e11e38d3f8",
  "label" : "Article Detail",
  "regions" : [ {
    "id" : "3f0442c5-fa5f-4f43-a6fa-9faded17d629",
    "regionName" : "header",
    "type" : "region"
  }, {
    "components" : [ {
      "componentAttributes" : {
        "uniqueNameOrId" : "{!urlName}"
      },
      "componentName" : "forceCommunity:breadcrumbs",
      "id" : "8b6fc9d9-b1a9-428d-9061-a3dfdfe2e5dc",
      "renderPriority" : "NEUTRAL",
      "renditionMap" : { },
      "type" : "component"
    }, {
      "componentAttributes" : {
        "enableVoting" : true,
        "recordId" : "{!recordId}",
        "showTitleInArticleHeader" : true,
        "showTopicPills" : true,
        "urlName" : "{!urlName}"
      },
      "componentName" : "selfService:singleArticleView",
      "id" : "57c193a9-4b5a-49fe-b656-02b608acf71f",
      "renderPriority" : "NEUTRAL",
      "renditionMap" : { },
      "type" : "component"
    }, {
      "componentAttributes" : {
        "context" : "RECORD",
        "recordId" : "{!recordId}",
        "width" : "WIDE"
      },
      "componentName" : "forceCommunity:feedPublisher",
      "id" : "dc1d8745-9e62-4bb2-b653-65c0b86ad986",
      "renderPriority" : "NEUTRAL",
      "renditionMap" : { },
      "type" : "component"
    }, {
      "componentAttributes" : {
        "canChangeSorting" : false,
        "defaultFilter" : "",
        "feedDesign" : "DEFAULT",
        "hasFeedSearch" : false,
        "subjectId" : "{!recordId}",
        "type" : "Record"
      },
      "componentName" : "forceCommunity:forceCommunityFeed",
      "id" : "012ac1fd-24fe-4ad4-80dd-202519a0d34f",
      "renderPriority" : "NEUTRAL",
      "renditionMap" : { },
      "type" : "component"
    } ],
    "id" : "fb9b3e21-9c3c-4453-bc21-6dac3e78c092",
    "regionName" : "content",
    "type" : "region"
  }, {
    "components" : [ {
      "componentAttributes" : {
        "recordId" : "{!recordId}",
        "showNotificationMenu" : false
      },
      "componentName" : "forceCommunity:follow",
      "id" : "4cfeb423-db6c-44e8-ada7-76f288ef603f",
      "renderPriority" : "NEUTRAL",
      "renditionMap" : { },
      "type" : "component"
    }, {
      "componentAttributes" : {
        "numberOfItems" : 5,
        "showViewCounts" : true,
        "title" : "Related Articles"
      },
      "componentName" : "selfService:similarArticles42",
      "id" : "a5a5e1bb-1c0a-4377-96d5-d7a6fd8a6f54",
      "renderPriority" : "NEUTRAL",
      "renditionMap" : { },
      "type" : "component"
    }, {
      "componentAttributes" : {
        "numberOfArticles" : 5,
        "title" : "Trending Articles",
        "topicId" : "{!topicId}"
      },
      "componentName" : "selfService:topicTrendingArticles42",
      "id" : "3d8a489d-ef2c-4fea-b805-9ff17979cad0",
      "renderPriority" : "NEUTRAL",
      "renditionMap" : { },
      "type" : "component"
    } ],
    "id" : "56d71202-a6ff-4abe-bef0-f7fa7818f66f",
    "regionName" : "sidebar",
    "type" : "region"
  }, {
    "id" : "c9f3e198-30d6-4984-ac26-022393592f53",
    "regionName" : "footer",
    "type" : "region"
  }, {
    "components" : [ {
      "componentAttributes" : {
        "description" : "{!Record.Summary}",
        "metaTags" : "",
        "title" : "{!Record._Title}"
      },
      "componentName" : "forceCommunity:seoAssistant",
      "id" : "0094e20c-9037-430d-bf4e-44c4ccc2ba8e",
      "renderPriority" : "NEUTRAL",
      "renditionMap" : { },
      "type" : "component"
    } ],
    "id" : "2d9299e6-61de-44fe-a692-3fd53253d36b",
    "regionName" : "sfdcHiddenRegion",
    "type" : "region"
  } ],
  "themeLayoutType" : "Inner",
  "type" : "view",
  "viewType" : "article"
}