{
  "appPageId" : "78601d87-bcd1-4f1d-b79d-60a602599231",
  "componentName" : "siteforce:sldsOneColLayout",
  "id" : "9731ee28-413f-41f1-9da0-66bc87263acb",
  "label" : "Competitor Information Related List",
  "regions" : [ {
    "id" : "9fe33ad0-6c91-43e7-a844-9aa791a2580f",
    "regionName" : "header",
    "type" : "region"
  }, {
    "components" : [ {
      "componentAttributes" : {
        "customTitle" : "",
        "parentRecordId" : "{!recordId}",
        "relatedListName" : "{!relationshipApiName}",
        "showBreadCrumbs" : true,
        "showCustomTitle" : false,
        "showManualRefreshButton" : true,
        "showRowNumbers" : true
      },
      "componentName" : "forceCommunity:relatedList",
      "id" : "32df083b-a8e5-495d-9437-dc7816492b9c",
      "renderPriority" : "NEUTRAL",
      "renditionMap" : { },
      "type" : "component"
    } ],
    "id" : "aa1a4ef5-ae18-485c-8d6f-26a9d8210f98",
    "regionName" : "content",
    "type" : "region"
  }, {
    "id" : "2e54a6c4-3337-4782-9df5-4fe5df068fc0",
    "regionName" : "footer",
    "type" : "region"
  } ],
  "themeLayoutType" : "Inner",
  "type" : "view",
  "viewType" : "relatedlist-a34"
}