{
  "appPageId" : "78601d87-bcd1-4f1d-b79d-60a602599231",
  "componentName" : "siteforce:sldsOneColLayout",
  "id" : "9d500bad-5779-475d-a524-6d36e6a70525",
  "label" : "Contact Detail",
  "regions" : [ {
    "components" : [ {
      "componentAttributes" : {
        "recordId" : "{!recordId}"
      },
      "componentName" : "forceCommunity:recordHeadline",
      "id" : "986bbb23-7121-47e5-9bb6-a1d6c49dc0e9",
      "renderPriority" : "NEUTRAL",
      "renditionMap" : { },
      "type" : "component"
    } ],
    "id" : "960440b8-7b08-4f93-93f1-7769a49f584c",
    "regionName" : "header",
    "type" : "region"
  }, {
    "components" : [ {
      "componentAttributes" : {
        "tabsetConfig" : {
          "UUID" : "0247d08f-7442-4a44-9938-193cd450575d",
          "activeTab" : "",
          "useOverflowMenu" : false,
          "tabs" : [ {
            "UUID" : "f024ed89-502c-4120-80d7-8be361d55604",
            "tabName" : "Details",
            "tabKey" : "1",
            "locked" : false,
            "allowGuestUser" : false,
            "seedComponents" : [ ]
          }, {
            "UUID" : "a4b8b3af-8941-4197-bb53-4ce7be5a47b2",
            "tabName" : "Related",
            "tabKey" : "2",
            "locked" : false,
            "allowGuestUser" : false,
            "seedComponents" : [ ]
          } ]
        }
      },
      "componentName" : "forceCommunity:tabset",
      "id" : "0247d08f-7442-4a44-9938-193cd450575d",
      "regions" : [ {
        "components" : [ {
          "componentAttributes" : {
            "recordId" : "{!recordId}"
          },
          "componentName" : "forceCommunity:recordDetail",
          "id" : "a61a60bb-88fd-4d71-9288-13301d865af8",
          "renderPriority" : "NEUTRAL",
          "renditionMap" : { },
          "type" : "component"
        } ],
        "id" : "f024ed89-502c-4120-80d7-8be361d55604",
        "regionLabel" : "Details",
        "regionName" : "1",
        "type" : "region"
      }, {
        "components" : [ {
          "componentAttributes" : {
            "recordId" : "{!recordId}",
            "width" : "MEDIUM"
          },
          "componentName" : "forceCommunity:relatedRecords",
          "id" : "67fb314f-3be7-4fc9-9322-269cfe33fa1e",
          "renderPriority" : "NEUTRAL",
          "renditionMap" : { },
          "type" : "component"
        } ],
        "id" : "a4b8b3af-8941-4197-bb53-4ce7be5a47b2",
        "regionLabel" : "Related",
        "regionName" : "2",
        "type" : "region"
      } ],
      "renderPriority" : "NEUTRAL",
      "renditionMap" : { },
      "type" : "component"
    } ],
    "id" : "7b2a61f1-3814-4876-9208-6be5d2860e9b",
    "regionName" : "content",
    "type" : "region"
  }, {
    "id" : "b260a03f-fcd5-4db6-926f-b97834b33444",
    "regionName" : "footer",
    "type" : "region"
  }, {
    "components" : [ {
      "componentAttributes" : {
        "description" : "",
        "metaTags" : "",
        "title" : "{!Record._Object}: {!Record._Title}"
      },
      "componentName" : "forceCommunity:seoAssistant",
      "id" : "27512654-7ccb-4e2b-8c5b-d24d4b74b6ac",
      "renderPriority" : "NEUTRAL",
      "renditionMap" : { },
      "type" : "component"
    } ],
    "id" : "a85de6f3-3b84-47b2-9539-1dc8e4464c4a",
    "regionName" : "sfdcHiddenRegion",
    "type" : "region"
  } ],
  "themeLayoutType" : "Inner",
  "type" : "view",
  "viewType" : "detail-003"
}