{
  "appPageId" : "78601d87-bcd1-4f1d-b79d-60a602599231",
  "componentName" : "siteforce:sldsOneColLayout",
  "id" : "8c10220f-6de9-42e3-af26-f801a3e192ae",
  "label" : "Contract Related List",
  "regions" : [ {
    "id" : "9ea8921c-4d1a-471d-a2b7-9aee9083d6b2",
    "regionName" : "header",
    "type" : "region"
  }, {
    "components" : [ {
      "componentAttributes" : {
        "customTitle" : "",
        "parentRecordId" : "{!recordId}",
        "relatedListName" : "{!relationshipApiName}",
        "showBreadCrumbs" : true,
        "showCustomTitle" : false,
        "showManualRefreshButton" : true,
        "showRowNumbers" : true
      },
      "componentName" : "forceCommunity:relatedList",
      "id" : "f223e470-b1b9-4471-bd72-a7ccadb5f90a",
      "renderPriority" : "NEUTRAL",
      "renditionMap" : { },
      "type" : "component"
    } ],
    "id" : "7c1bb1ee-bde5-4838-8cbc-9a99819473fd",
    "regionName" : "content",
    "type" : "region"
  }, {
    "id" : "e201e4fa-c379-4aae-97d0-622f63ef26b0",
    "regionName" : "footer",
    "type" : "region"
  } ],
  "themeLayoutType" : "Inner",
  "type" : "view",
  "viewType" : "relatedlist-800"
}