{
  "appPageId" : "78601d87-bcd1-4f1d-b79d-60a602599231",
  "componentName" : "siteforce:sldsOneColLayout",
  "id" : "c420900e-e3c2-460e-9bd8-3cdffe43649f",
  "label" : "Dashboard List",
  "regions" : [ {
    "id" : "a527bfe5-2497-465a-a997-6dd159c9a0a1",
    "regionName" : "header",
    "type" : "region"
  }, {
    "components" : [ {
      "componentAttributes" : { },
      "componentName" : "forceCommunity:dashboardList",
      "id" : "2369863e-156c-4868-8f8d-c38fb4e56cab",
      "renderPriority" : "NEUTRAL",
      "renditionMap" : { },
      "type" : "component"
    } ],
    "id" : "a0ba2cee-d5d8-4ba7-83c1-00d880a951af",
    "regionName" : "content",
    "type" : "region"
  }, {
    "id" : "ae9e8a92-f120-4e11-9523-682fca88e349",
    "regionName" : "footer",
    "type" : "region"
  } ],
  "themeLayoutType" : "Inner",
  "type" : "view",
  "viewType" : "list-01Z"
}