{
  "appPageId" : "78601d87-bcd1-4f1d-b79d-60a602599231",
  "componentName" : "siteforce:sldsOneColLayout",
  "id" : "103fcccd-97ae-4b4e-b02f-0ff14790b633",
  "label" : "Dashboard Related List",
  "regions" : [ {
    "id" : "08d76c82-e609-42f0-80be-6523a2f86508",
    "regionName" : "header",
    "type" : "region"
  }, {
    "components" : [ {
      "componentAttributes" : {
        "customTitle" : "",
        "parentRecordId" : "{!parentRecordId}",
        "relatedListName" : "{!relatedListName}",
        "showBreadCrumbs" : true,
        "showCustomTitle" : false,
        "showManualRefreshButton" : true,
        "showRowNumbers" : true
      },
      "componentName" : "forceCommunity:relatedList",
      "id" : "e1b3abb1-2f53-4bd3-a6d4-15fd694f81b9",
      "renderPriority" : "NEUTRAL",
      "renditionMap" : { },
      "type" : "component"
    } ],
    "id" : "0ca490df-d53e-4b51-a2ff-23c6fd1d376a",
    "regionName" : "content",
    "type" : "region"
  }, {
    "id" : "c9d2e297-e1c1-4876-9521-d87f681637ca",
    "regionName" : "footer",
    "type" : "region"
  } ],
  "themeLayoutType" : "Inner",
  "type" : "view",
  "viewType" : "relatedlist-01Z"
}