{
  "appPageId" : "78601d87-bcd1-4f1d-b79d-60a602599231",
  "componentName" : "siteforce:sldsOneColLayout",
  "id" : "09cabd2f-e1fb-410f-b5b0-203d0f90a72a",
  "label" : "File Detail",
  "regions" : [ {
    "id" : "c50ac17e-fcaf-4bf8-bb89-935f46beb602",
    "regionName" : "header",
    "type" : "region"
  }, {
    "components" : [ {
      "componentAttributes" : { },
      "componentName" : "forceCommunity:fileDetailPage",
      "id" : "c7763aaa-1947-48d6-853d-5a6ac3bdb9ab",
      "renderPriority" : "NEUTRAL",
      "renditionMap" : { },
      "type" : "component"
    } ],
    "id" : "1360340f-fecd-4009-bab1-3bd52cb7bcd5",
    "regionName" : "content",
    "type" : "region"
  }, {
    "id" : "f51577b6-35ee-4fdb-9c9a-b62d04b4ac03",
    "regionName" : "footer",
    "type" : "region"
  } ],
  "themeLayoutType" : "Inner",
  "type" : "view",
  "viewType" : "detail-069"
}