{
  "appPageId" : "223d9326-6af6-44cd-893d-2151726f26cc",
  "componentName" : "siteforce:sldsOneColLayout",
  "id" : "fe6fb426-3972-4a6f-b0a7-46f1b4b0e71b",
  "label" : "Login",
  "regions" : [ {
    "id" : "984cc3f5-479f-4ea4-9c09-877c8c119d64",
    "regionName" : "content",
    "type" : "region"
  }, {
    "components" : [ {
      "componentAttributes" : {
        "description" : "",
        "metaTags" : "",
        "title" : "Login"
      },
      "componentName" : "forceCommunity:seoAssistant",
      "id" : "de810595-4061-4b9c-93cc-71dae70d4b5a",
      "renderPriority" : "NEUTRAL",
      "renditionMap" : { },
      "type" : "component"
    } ],
    "id" : "005dd38e-c7c2-41fd-beda-f875f74af3a4",
    "regionName" : "sfdcHiddenRegion",
    "type" : "region"
  } ],
  "themeLayoutType" : "Login",
  "type" : "view",
  "viewType" : "login-home"
}