{
  "appPageId" : "78601d87-bcd1-4f1d-b79d-60a602599231",
  "componentName" : "siteforce:sldsOneColLayout",
  "id" : "fb9fae30-4a1f-4a4f-94c2-f6d13a8f8512",
  "label" : "Manage Profile",
  "regions" : [ {
    "id" : "f2bfc466-b568-4dea-aa75-27ae7d7c3f88",
    "regionName" : "header",
    "type" : "region"
  }, {
    "components" : [ {
      "componentAttributes" : {
        "height" : 1000,
        "pageName" : "QVM_PartnerProfile",
        "recordId" : "{!recordId}"
      },
      "componentName" : "forceCommunity:visualforcePage",
      "id" : "24734a95-7617-4d9f-bbe2-3c9ce5ef8864",
      "renderPriority" : "NEUTRAL",
      "renditionMap" : { },
      "type" : "component"
    } ],
    "id" : "76435939-069b-46fa-96fb-f240d995fcd2",
    "regionName" : "content",
    "type" : "region"
  }, {
    "id" : "8435cd22-f033-421c-8e1e-cd816fad1802",
    "regionName" : "footer",
    "type" : "region"
  }, {
    "components" : [ {
      "componentAttributes" : {
        "description" : "",
        "metaTags" : "",
        "title" : "Manage Profile"
      },
      "componentName" : "forceCommunity:seoAssistant",
      "id" : "f22d3f03-2e00-47a9-ad26-31cf6d8e913d",
      "renderPriority" : "NEUTRAL",
      "renditionMap" : { },
      "type" : "component"
    } ],
    "id" : "a4788e83-7622-4b87-9d02-018804875b7b",
    "regionName" : "sfdcHiddenRegion",
    "type" : "region"
  } ],
  "themeLayoutType" : "Inner",
  "type" : "view",
  "viewType" : "custom-manage-profile"
}