{
  "appPageId" : "78601d87-bcd1-4f1d-b79d-60a602599231",
  "componentName" : "siteforce:sldsOneColLayout",
  "id" : "305e15a1-0190-4371-8350-7270b8bf18ec",
  "label" : "Sphere of Influence Related List",
  "regions" : [ {
    "id" : "e57b7699-b714-4b32-8241-1f94f5026e30",
    "regionName" : "header",
    "type" : "region"
  }, {
    "components" : [ {
      "componentAttributes" : {
        "customTitle" : "",
        "parentRecordId" : "{!recordId}",
        "relatedListName" : "{!relationshipApiName}",
        "showBreadCrumbs" : true,
        "showCustomTitle" : false,
        "showManualRefreshButton" : true,
        "showRowNumbers" : true
      },
      "componentName" : "forceCommunity:relatedList",
      "id" : "0ca83d09-9019-4037-939c-de70a6d437e9",
      "renderPriority" : "NEUTRAL",
      "renditionMap" : { },
      "type" : "component"
    } ],
    "id" : "c3a92a74-f07c-47f2-8cc9-293ea1045849",
    "regionName" : "content",
    "type" : "region"
  }, {
    "id" : "da584566-7942-4e31-bebd-b6a374d24018",
    "regionName" : "footer",
    "type" : "region"
  } ],
  "themeLayoutType" : "Inner",
  "type" : "view",
  "viewType" : "relatedlist-a0v"
}