{
  "appPageId" : "78601d87-bcd1-4f1d-b79d-60a602599231",
  "componentName" : "siteforce:sldsOneColLayout",
  "id" : "13644ab9-38b7-4188-b85f-9ed706017189",
  "label" : "Stream Detail",
  "regions" : [ {
    "id" : "9c43c3b9-9942-4ea9-b97b-c6cbcdb6f2f2",
    "regionName" : "header",
    "type" : "region"
  }, {
    "components" : [ {
      "componentAttributes" : {
        "id" : "{!recordId}"
      },
      "componentName" : "forceCommunity:streamDetail",
      "id" : "eccbcdc8-4200-45ec-b4ad-ad75fd9efa44",
      "renderPriority" : "NEUTRAL",
      "renditionMap" : { },
      "type" : "component"
    } ],
    "id" : "c53645c5-acee-4af3-934b-54b1fff603df",
    "regionName" : "content",
    "type" : "region"
  }, {
    "id" : "fe9c6013-af9f-4fe4-882f-dacb05ef1020",
    "regionName" : "footer",
    "type" : "region"
  } ],
  "themeLayoutType" : "Inner",
  "type" : "view",
  "viewType" : "detail-0Fq"
}