<?xml version="1.0" encoding="UTF-8"?>
<CustomTab xmlns="http://soap.sforce.com/2006/04/metadata">
    <frameHeight>600</frameHeight>
    <hasSidebar>false</hasSidebar>
    <label>About Xactly Incent</label>
    <motif>Custom83: Pencil</motif>
    <url>https://www.xactlycorp.com/products/appexchange.php</url>
    <urlEncodingKey>UTF-8</urlEncodingKey>
</CustomTab>
