<?xml version="1.0" encoding="UTF-8"?>
<CustomTab xmlns="http://soap.sforce.com/2006/04/metadata">
    <frameHeight>600</frameHeight>
    <hasSidebar>false</hasSidebar>
    <label>Incent</label>
    <motif>Custom20: Airplane</motif>
    <scontrol>BlackBirdProduction</scontrol>
</CustomTab>
