<?xml version="1.0" encoding="UTF-8"?>
<CustomTab xmlns="http://soap.sforce.com/2006/04/metadata">
    <description>shows ringlead login in salesforce</description>
    <frameHeight>1000</frameHeight>
    <hasSidebar>true</hasSidebar>
    <label>My Ringlead</label>
    <motif>Custom18: Form</motif>
    <url>https://login.ringlead.com/support</url>
    <urlEncodingKey>UTF-8</urlEncodingKey>
</CustomTab>
