<?xml version="1.0" encoding="UTF-8"?>
<CustomTab xmlns="http://soap.sforce.com/2006/04/metadata">
    <label>Qlikview AppsOLD</label>
    <motif>Custom5: Leaf</motif>
    <page>QPartnerPub</page>
</CustomTab>
