<?xml version="1.0" encoding="UTF-8"?>
<CustomTab xmlns="http://soap.sforce.com/2006/04/metadata">
    <label>Sandbox Update</label>
    <motif>Custom21: Computer</motif>
    <page>SandboxRefresh_Edit</page>
</CustomTab>
