<?xml version="1.0" encoding="UTF-8"?>
<CustomTab xmlns="http://soap.sforce.com/2006/04/metadata">
    <description>Support OnBoarding tab for the Customer Portal</description>
    <label>Support Enablement</label>
    <motif>Custom100: TV Widescreen</motif>
    <page>SupportOnBoarding</page>
</CustomTab>
