<?xml version="1.0" encoding="UTF-8"?>
<CustomTab xmlns="http://soap.sforce.com/2006/04/metadata">
    <customObject>true</customObject>
    <description>Object for recording and notifying of systemic issues and planned maintenance.</description>
    <motif>Custom36: Train</motif>
</CustomTab>
