<?xml version="1.0" encoding="utf-8"?>
<!-- Generator: Adobe Illustrator 23.0.1, SVG Export Plug-In . SVG Version: 6.00 Build 0)  -->
<svg version="1.1" id="Layer_1" xmlns="http://www.w3.org/2000/svg" xmlns:xlink="http://www.w3.org/1999/xlink" x="0px" y="0px"
	 viewBox="0 0 360 360" style="enable-background:new 0 0 360 360;" xml:space="preserve">
<style type="text/css">
	.st0{fill:#FFFFFF;}
</style>
<path class="st0" d="M180,9.01C85.56,9.01,9.01,85.56,9.01,180S85.56,350.99,180,350.99S350.99,274.44,350.99,180
	S274.44,9.01,180,9.01z M222.27,188.38h-27.14v101.15h-40.67V188.38h-20.33v-34.86h20.33v-20.93c0-28.44,11.47-45.35,44.07-45.35
	h27.14v34.86h-16.96c-12.69,0-13.53,4.87-13.53,13.96l-0.05,17.45h30.74L222.27,188.38z"/>
</svg>
