{
  "appPageId" : "78601d87-bcd1-4f1d-b79d-60a602599231",
  "id" : "3ea7a6fc-9625-4a78-ada7-0338f9f37d76",
  "label" : "Account Detail",
  "pageAccess" : "UseParent",
  "routeType" : "detail-001",
  "type" : "route",
  "urlPrefix" : "account"
}