{
  "appPageId" : "78601d87-bcd1-4f1d-b79d-60a602599231",
  "id" : "4ca99e1e-31a7-455e-acf6-1eb9ddcd38b2",
  "label" : "Case Related List",
  "pageAccess" : "UseParent",
  "routeType" : "relatedlist-500",
  "type" : "route",
  "urlPrefix" : "case"
}