{
  "appPageId" : "78601d87-bcd1-4f1d-b79d-60a602599231",
  "id" : "0c894945-bb6b-4df0-9320-1be4b11b9e0e",
  "label" : "Create Record",
  "pageAccess" : "UseParent",
  "routeType" : "createrecord",
  "type" : "route",
  "urlPrefix" : "createrecord"
}