{
  "appPageId" : "78601d87-bcd1-4f1d-b79d-60a602599231",
  "id" : "e9e8bf0b-33bd-4057-95b2-8518ff728fff",
  "label" : "File List",
  "pageAccess" : "UseParent",
  "routeType" : "list-069",
  "type" : "route",
  "urlPrefix" : "contentdocument"
}