{
  "appPageId" : "78601d87-bcd1-4f1d-b79d-60a602599231",
  "id" : "1c4b6cca-ea72-41b5-9949-b7573991cbc2",
  "label" : "Manage Products",
  "pageAccess" : "UseParent",
  "routeType" : "custom-manage-products",
  "type" : "route",
  "urlPrefix" : "manage-products"
}