{
  "appPageId" : "78601d87-bcd1-4f1d-b79d-60a602599231",
  "id" : "bd61c83c-61d5-4aff-a8fe-26432f358458",
  "label" : "Opportunity List",
  "pageAccess" : "UseParent",
  "routeType" : "list-006",
  "type" : "route",
  "urlPrefix" : "opportunity"
}