{
  "appPageId" : "78601d87-bcd1-4f1d-b79d-60a602599231",
  "id" : "47c53ec7-aaa0-45b6-908f-af13fff144d6",
  "label" : "Question Detail",
  "pageAccess" : "UseParent",
  "routeType" : "feeditem",
  "type" : "route",
  "urlPrefix" : "question"
}