{
  "appPageId" : "78601d87-bcd1-4f1d-b79d-60a602599231",
  "id" : "1910224e-dfd8-4c6d-b2c1-6870af2241c5",
  "label" : "Sales",
  "pageAccess" : "UseParent",
  "routeType" : "custom-sales",
  "type" : "route",
  "urlPrefix" : "sales"
}