{
  "appPageId" : "78601d87-bcd1-4f1d-b79d-60a602599231",
  "id" : "5da46bc8-cafb-4528-8d37-c362c0c54812",
  "label" : "User Settings",
  "pageAccess" : "UseParent",
  "routeType" : "usersettings",
  "type" : "route",
  "urlPrefix" : "settings"
}