{
  "appPageId" : "78601d87-bcd1-4f1d-b79d-60a602599231",
  "id" : "2823f7c0-59ae-4259-a912-591d7a1a963d",
  "label" : "User Profile",
  "pageAccess" : "UseParent",
  "routeType" : "detail-005",
  "type" : "route",
  "urlPrefix" : "profile"
}