{
  "appPageId" : "11ed97f8-c23e-4c4e-b2d7-f341af9d2a0c",
  "id" : "234cbcf9-8a3e-4c4c-b7d4-5abf1224eb3c",
  "label" : "Case Related List",
  "pageAccess" : "UseParent",
  "routeType" : "relatedlist-500",
  "type" : "route",
  "urlPrefix" : "case"
}