{
  "appPageId" : "11ed97f8-c23e-4c4e-b2d7-f341af9d2a0c",
  "id" : "70224653-c2b4-44de-bfa4-d54fa154d25b",
  "label" : "Group Detail",
  "pageAccess" : "UseParent",
  "routeType" : "detail-0F9",
  "type" : "route",
  "urlPrefix" : "group"
}