{
  "appPageId" : "11ed97f8-c23e-4c4e-b2d7-f341af9d2a0c",
  "id" : "19cd697f-a402-4771-9880-377f1d43a8bf",
  "label" : "Report Related List",
  "pageAccess" : "UseParent",
  "routeType" : "relatedlist-00O",
  "type" : "route",
  "urlPrefix" : "report"
}