{
  "appPageId" : "11ed97f8-c23e-4c4e-b2d7-f341af9d2a0c",
  "id" : "995f8729-a4b3-4c44-aaff-41e0e70af581",
  "label" : "Search",
  "pageAccess" : "UseParent",
  "routeType" : "global-search",
  "type" : "route",
  "urlPrefix" : "global-search"
}